module gitlab.com/postmarketOS/postmarketos-mkinitfs

go 1.20

require (
	github.com/cavaliercoder/go-cpio v0.0.0-20180626203310-925f9528c45e
	github.com/klauspost/compress v1.15.12
	github.com/ulikunitz/xz v0.5.10
	golang.org/x/sys v0.0.0-20210630005230-0f9fa26af87c
	github.com/pierrec/lz4/v4 v4.1.17
)
